{
	"id": "0007",
	"type": "Jeux Video",
	"message": "Votre bien veut sortir, Laisser tomber votre jeux et allez y",
	"conseilPos": "Destiny 2 n'est pas une bonne reponse",
	"conseilNeg": "PUBJ non plus",
	"stat": 2
}