{
	"id": "0008",
	"type": "Jeux Video",
	"message": "Vous allez echouer votre derniere mission",
	"conseilPos": "Ne jetter pas votre telecommande sur la television",
	"conseilNeg": "Vous allez avoir une autre chance dans 100 ans apres une visite au spa",
	"stat": 2
}